module gitlab.com/mrafliramadhani21/depublic

go 1.22.1

require (
	github.com/caarlos0/env/v10 v10.0.0
	github.com/go-playground/validator/v10 v10.21.0
	github.com/gocraft/work v0.5.1
	github.com/golang-jwt/jwt/v5 v5.2.1
	github.com/gomodule/redigo v1.9.2
	github.com/google/uuid v1.6.0
	github.com/joho/godotenv v1.5.1
	github.com/labstack/echo-jwt/v4 v4.2.0
	github.com/labstack/echo/v4 v4.12.0
	github.com/midtrans/midtrans-go v1.3.8
	github.com/redis/go-redis/v9 v9.5.2
	golang.org/x/crypto v0.22.0
	gopkg.in/gomail.v2 v2.0.0-20160411212932-81ebce5c23df
	gorm.io/driver/postgres v1.5.7
	gorm.io/gorm v1.25.10
)

require (
	github.com/cespare/xxhash/v2 v2.2.0 // indirect
	github.com/davecgh/go-spew v1.1.2-0.20180830191138-d8f796af33cc // indirect
	github.com/dgryski/go-rendezvous v0.0.0-20200823014737-9f7001d12a5f // indirect
	github.com/gabriel-vasile/mimetype v1.4.3 // indirect
	github.com/go-playground/locales v0.14.1 // indirect
	github.com/go-playground/universal-translator v0.18.1 // indirect
	github.com/golang-jwt/jwt v3.2.2+incompatible // indirect
	github.com/jackc/pgpassfile v1.0.0 // indirect
	github.com/jackc/pgservicefile v0.0.0-20221227161230-091c0ba34f0a // indirect
	github.com/jackc/pgx/v5 v5.4.3 // indirect
	github.com/jinzhu/inflection v1.0.0 // indirect
	github.com/jinzhu/now v1.1.5 // indirect
	github.com/labstack/gommon v0.4.2 // indirect
	github.com/leodido/go-urn v1.4.0 // indirect
	github.com/mattn/go-colorable v0.1.13 // indirect
	github.com/mattn/go-isatty v0.0.20 // indirect
	github.com/pmezard/go-difflib v1.0.1-0.20181226105442-5d4384ee4fb2 // indirect
	github.com/robfig/cron v1.2.0 // indirect
	github.com/stretchr/testify v1.9.0 // indirect
	github.com/valyala/bytebufferpool v1.0.0 // indirect
	github.com/valyala/fasttemplate v1.2.2 // indirect
	golang.org/x/net v0.24.0 // indirect
	golang.org/x/sys v0.19.0 // indirect
	golang.org/x/text v0.14.0 // indirect
	golang.org/x/time v0.5.0 // indirect
	gopkg.in/alexcesaro/quotedprintable.v3 v3.0.0-20150716171945-2caba252f4dc // indirect
)
